{
    "number_of_pages": 4,
    "measure_type": "pt",
    "page1": {
        "first_name": {
            "t": "222",
            "l": "497",
            "w": "76"
        },
        "family_name": {            
            "t": "222",
            "l": "420",
            "w": "77" 
        },
        "id": {            
            "t": "222",
            "l": "220",
            "w": "120" 
        },
        "birth_date": {            
            "t": "222",
            "l": "151",
            "w": "67" 
        },
        "gender_1": {            
            "t": "222",
            "l": "124", 
            "w": "12" 
        },
        "gender_2": {            
            "t": "222",
            "l": "137", 
            "w": "12" 
        },
        "family_status_1": {            
            "t": "218",
            "l": "110",
            "w": "12" 
        },
        "family_status_2": {            
            "t": "218",
            "l": "90", 
            "w": "12" 
        },
        "family_status_3": {            
            "t": "218",
            "l": "70", 
            "w": "12" 
        },
        "family_status_4": {            
            "t": "218",
            "l": "49", 
            "w": "12" 
        },
        "family_status_5": {            
            "t": "227",
            "l": "88", 
            "w": "12" 
        },
        "city": {            
            "t": "254",
            "l": "406",
            "w": "167" 
        },
        "street": {            
            "t": "254",
            "l": "184",
            "w": "155" 
        },
        "house": {            
            "t": "254",
            "l": "150", 
            "w": "33" 
        },
        "email": {            
            "t": "290",
            "l": "340",
            "w": "233" 
        },
        "cell": {            
            "t": "290",
            "l": "244",
            "w": "95" 
        },
        "employee_type_1": {            
            "t": "286",
            "l": "135", 
            "w": "12" 
        },
        "employer_name": {            
            "t": "502",
            "l": "436",
            "w": "138" 
        },
        "employer_address": {            
            "t": "502",
            "l": "242",
            "w": "194" 
        },
        "employer_id": {            
            "t": "502",
            "l": "35",
            "w": "100" 
        },
        "employer_phone": {            
            "t": "502",
            "l": "136",
            "w": "106" 
        },
        "insurance_type_1": {            
            "t": "558",
            "l": "557", 
            "w": "12" 
        },        
        "insurance_type_2": {            
            "t": "575",
            "l": "556", 
            "w": "12" 
        },
        "insurance_type_3": {            
            "t": "596",
            "l": "556", 
            "w": "12" 
        },
        "insurance_type_4": {            
            "t": "614",
            "l": "556", 
            "w": "12" 
        },
        "insurance_type_5": {            
            "t": "629",
            "l": "556", 
            "w": "12" 
        },
        "insurance_type_6": {            
            "t": "645",
            "l": "556", 
            "w": "12" 
        },
        "insurance_type_7": {            
            "t": "662",
            "l": "556", 
            "w": "12" 
        },
        "insurance_type_1_age_67": {            
            "t": "559",
            "l": "126", 
            "w": "12" 
        },
        "insurance_type_1_age_64": {            
            "t": "559",
            "l": "147", 
            "w": "12" 
        },
        "insurance_type_1_age_62": {            
            "t": "559",
            "l": "167", 
            "w": "12" 
        },
        "insurance_type_1_age_60": {            
            "t": "559",
            "l": "187", 
            "w": "12" 
        },
        "insurance_type_2_age_67": {            
            "t": "576",
            "l": "126", 
            "w": "12" 
        },
        "insurance_type_2_age_64": {            
            "t": "576",
            "l": "147", 
            "w": "12" 
        },
        "insurance_type_2_age_62": {            
            "t": "576",
            "l": "167", 
            "w": "12" 
        },
        "insurance_type_2_age_60": {            
            "t": "576",
            "l": "187", 
            "w": "12" 
        },
        "insurance_type_3_age_67": {            
            "t": "596",
            "l": "126", 
            "w": "12" 
        },
        "insurance_type_3_age_64": {            
            "t": "596",
            "l": "147", 
            "w": "12" 
        },
        "insurance_type_3_age_62": {            
            "t": "596",
            "l": "167", 
            "w": "12" 
        },
        "insurance_type_3_age_60": {            
            "t": "596",
            "l": "187", 
            "w": "12" 
        },
        "insurance_type_4_age_67": {            
            "t": "614",
            "l": "126", 
            "w": "12" 
        },
        "insurance_type_4_age_64": {            
            "t": "614",
            "l": "147", 
            "w": "12" 
        },
        "insurance_type_4_age_62": {            
            "t": "614",
            "l": "167", 
            "w": "12" 
        },
        "insurance_type_4_age_60": {            
            "t": "614",
            "l": "187", 
            "w": "12" 
        },
        "insurance_type_5_age_67": {            
            "t": "630",
            "l": "126", 
            "w": "12" 
        },
        "insurance_type_5_age_64": {            
            "t": "630",
            "l": "147", 
            "w": "12" 
        },
        "insurance_type_5_age_62": {            
            "t": "630",
            "l": "167", 
            "w": "12" 
        },
        "insurance_type_5_age_60": {            
            "t": "630",
            "l": "187", 
            "w": "12" 
        },
        "insurance_type_6_age_67": {            
            "t": "645",
            "l": "126", 
            "w": "12" 
        },
        "insurance_type_6_age_64": {            
            "t": "645",
            "l": "147", 
            "w": "12" 
        },
        "insurance_type_6_age_62": {            
            "t": "645",
            "l": "167", 
            "w": "12" 
        },
        "insurance_type_6_age_60": {            
            "t": "645",
            "l": "187", 
            "w": "12" 
        }
    },
    "page2": {
        "add_cover_1": {            
            "t": "104",
            "l": "558", 
            "w": "12" 
        },
        "add_cover_2": {            
            "t": "132",
            "l": "558", 
            "w": "12" 
        },
        "waver_1": {            
            "t": "207",
            "l": "558", 
            "w": "12" 
        },
        "waver_2": {            
            "t": "219",
            "l": "558", 
            "w": "12" 
        },
        "waver_4": {            
            "t": "303",
            "l": "560", 
            "w": "12" 
        },
        "waver_5": {            
            "t": "316",
            "l": "560", 
            "w": "12" 
        },            
        "investment_track_168_tag": {            
            "t": "428",
            "l": "552", 
            "w": "12" 
        },
        "investment_track_2182_tag": {            
            "t": "446",
            "l": "552", 
            "w": "12" 
        },
        "investment_track_2063_tag": {            
            "t": "457",
            "l": "552", 
            "w": "12" 
        },
        "investment_track_2064_tag": {            
            "t": "469",
            "l": "552", 
            "w": "12" 
        },
        "investment_track_2011_tag": {            
            "t": "479",
            "l": "552", 
            "w": "12" 
        },
        "investment_track_2012_tag": {            
            "t": "491",
            "l": "552", 
            "w": "12" 
        },
        "investment_track_2013_tag": {            
            "t": "502",
            "l": "552", 
            "w": "12" 
        },
        "investment_track_2014_tag": {            
            "t": "514",
            "l": "552", 
            "w": "12" 
        },
        "investment_track_2015_tag": {            
            "t": "525",
            "l": "552", 
            "w": "12" 
        },
        "investment_track_2016_tag": {            
            "t": "536",
            "l": "552", 
            "w": "12" 
        },
        "investment_track_2183_tag": {            
            "t": "547",
            "l": "552", 
            "w": "12" 
        },
        "investment_track_2184_tag": {            
            "t": "559",
            "l": "552", 
            "w": "12" 
        },
        "investment_track_8812_tag": {            
            "t": "571",
            "l": "552", 
            "w": "12" 
        },
        "investment_track_168_pit": {            
            "t": "623",
            "l": "552", 
            "w": "12" 
        },
        "investment_track_2182_pit": {            
            "t": "639",
            "l": "552", 
            "w": "12" 
        },
        "investment_track_2063_pit": {            
            "t": "650",
            "l": "552", 
            "w": "12" 
        },
        "investment_track_2064_pit": {            
            "t": "661",
            "l": "552", 
            "w": "12" 
        },
        "investment_track_2011_pit": {            
            "t": "672",
            "l": "552", 
            "w": "12" 
        },
        "investment_track_2012_pit": {            
            "t": "683",
            "l": "552", 
            "w": "12" 
        },
        "investment_track_2013_pit": {            
            "t": "694",
            "l": "552", 
            "w": "12" 
        },
        "investment_track_2014_pit": {            
            "t": "706",
            "l": "552", 
            "w": "12" 
        },
        "investment_track_2015_pit": {            
            "t": "717",
            "l": "552", 
            "w": "12" 
        },
        "investment_track_2016_pit": {            
            "t": "728",
            "l": "552", 
            "w": "12" 
        },
        "investment_track_2183_pit": {            
            "t": "740",
            "l": "552", 
            "w": "12" 
        },
        "investment_track_2184_pit": {            
            "t": "751",
            "l": "552", 
            "w": "12" 
        },
        "investment_track_8812_pit": {            
            "t": "763",
            "l": "552", 
            "w": "12" 
        }
    },
    "page3": {
        "hafkada_percent": {            
            "t": "197",
            "l": "420", 
            "w": "25" 
        },
        "tzvira_percent": {            
            "t": "179",
            "l": "420", 
            "w": "25" 
        }
    },
    "page4": {
        "today": {            
            "t": "278",
            "l": "350", 
            "w": "84" 
        },
        "sign_1": {            
            "t": "245",
            "l": "475",
            "w": "120",
            "h": "60"
        }
    }
}